Analisis Descriptivo Multivariado
…
datos <- read_excel("SUPPPORT2.xlsx")
datos<-datos%>%mutate(num.co=case_when(num.co>=4~ '4+',
                                       TRUE ~ as.character(num.co)
))
datos[,c(2,3,4,5,7,13,19,20,21,24,40,41,43,44,45)]<-lapply(datos[,c(2,3,4,5,7,13,19,20,21,24,40,41,43,44,45)],as.factor)
datos

# A tibble: 9,105 × 45
     age sex    dzgroup dzclass num.co   edu income scoma charges totcst totmcst
   <dbl> <fct>  <fct>   <fct>   <fct>  <dbl> <fct>  <dbl>   <dbl>  <dbl>   <dbl>
 1  62.8 male   Lung C… Cancer  0         11 $11-$…     0    9715     NA      NA
 2  60.3 female Cirrho… COPD/C… 2         12 $11-$…    44   34496     NA      NA
 3  52.7 female Cirrho… COPD/C… 2         12 under…     0   41094     NA      NA
 4  42.4 female Lung C… Cancer  2         11 under…     0    3075     NA      NA
 5  79.9 female ARF/MO… ARF/MO… 1         NA <NA>      26   50127     NA      NA
 6  93.0 male   Coma    Coma    1         14 <NA>      55    6884     NA      NA
 7  62.4 male   CHF     COPD/C… 1         14 $25-$…     0   30460     NA      NA
 8  86.8 male   CHF     COPD/C… 3         NA <NA>      26   30460     NA      NA
 9  85.7 male   Lung C… Cancer  2         12 <NA>      26      NA     NA      NA
10  42.3 female Colon … Cancer  0         11 $25-$…     0    9914     NA      NA
# ℹ 9,095 more rows
# ℹ 34 more variables: avtisst <dbl>, race <fct>, sps <dbl>, aps <dbl>,
#   surv2m <dbl>, surv6m <dbl>, hday <dbl>, diabetes <fct>, dementia <fct>,
#   ca <fct>, prg2m <dbl>, prg6m <dbl>, dnr <fct>, dnrday <dbl>, meanbp <dbl>,
#   wblc <dbl>, hrt <dbl>, resp <dbl>, temp <dbl>, pafi <dbl>, alb <dbl>,
#   bili <dbl>, crea <dbl>, sod <dbl>, ph <dbl>, glucose <dbl>, bun <dbl>,
#   urine <dbl>, adlp <fct>, adls <fct>, adlsc <dbl>, death <fct>, …
…
